…
Joining the two data sets: In order to join the two data sets together, the function full_join() was used. The two data sets were joined by state name. Since the state name variable was different between the two sets, the approach that was taken was to set c(State = Name) which basically tells R that those two variables in those two different data sets are actually the same.

#Wrangling and statistical analysis: 
longdat <- combdata %>% distinct() %>% 
  rename(Med_Expan = `Medicaid Expansion State?        Yes (Y) or No (N)1`) %>% 
  rename(Percent_uninsured2016 = `2016 Uninsured Percent`) %>% 
  rename(Percent_uninsured2017 = `2017 Uninsured Percent`)

longdat %>% select(State, year, PopEstimate, Percent_uninsured2016) %>% filter(year == 2016)%>%
  arrange(desc(PopEstimate)) %>% distinct() 

## # A tibble: 52 x 4
##    State          year  PopEstimate Percent_uninsured2016
##    <chr>          <chr>       <dbl>                 <dbl>
##  1 California     2016     39167117                   7.3
##  2 Texas          2016     27914410                  16.6
##  3 Florida        2016     20613477                  12.5
##  4 New York       2016     19633428                   6.1
##  5 Illinois       2016     12820527                   6.5
##  6 Pennsylvania   2016     12782275                   5.6
##  7 Ohio           2016     11634370                   5.6
##  8 Georgia        2016     10301890                  12.9
##  9 North Carolina 2016     10154788                  10.4
## 10 Michigan       2016      9950571                   5.4
## # … with 42 more rows
…
longdat_new %>% group_by(State) %>% filter(year == 2016) %>% summarize(avgPop=mean(PopEstimate)) 

## # A tibble: 52 x 2
##    State                  avgPop
##    <chr>                   <dbl>
##  1 Alabama               4863525
##  2 Alaska                 741456
##  3 Arizona               6941072
##  4 Arkansas              2989918
##  5 California           39167117
##  6 Colorado              5539215
##  7 Connecticut           3578141
##  8 Delaware               948921
##  9 District of Columbia   685815
## 10 Florida              20613477
## # … with 42 more rows

longdat_new %>% group_by(State) %>% summarize(sduninsured2016 = sd(uninsured2016))

## # A tibble: 52 x 2
##    State                sduninsured2016
##    <chr>                          <dbl>
##  1 Alabama                        3310.
##  2 Alaska                         1135.
##  3 Arizona                       28138.
##  4 Arkansas                       2339.
##  5 California                    54983.
##  6 Colorado                      17510.
##  7 Connecticut                     497.
##  8 Delaware                       1357.
##  9 District of Columbia           1302.
## 10 Florida                      111195.
## # … with 42 more rows
…
## # A tibble: 1 x 2
##   Med_Expan    min
##   <chr>      <dbl>
## 1 Y         23075.

longdat_new %>% summarize(mean_NPopChg = mean(NPopChg), sd_NPopChg = sd(NPopChg), n=n(), se_NPopChg=sd_NPopChg/sqrt(n))

## # A tibble: 1 x 4
##   mean_NPopChg sd_NPopChg       n se_NPopChg
##          <dbl>      <dbl>   <int>      <dbl>
## 1       23943.     41016. 5107000       18.1

longdat_new %>% group_by(State, Med_Expan) %>% summarize(variance=var(percentpopchg))

## # A tibble: 52 x 3
## # Groups:   State [52]
##    State                Med_Expan variance
##    <chr>                <chr>        <dbl>
##  1 Alabama              N          0.00388
##  2 Alaska               +Y         0.385  
##  3 Arizona              Y          0.168  
##  4 Arkansas             Y          0.0139 
##  5 California           Y          0.0827 
##  6 Colorado             Y          0.143  
##  7 Connecticut          Y          0.0266 
##  8 Delaware             Y          0.0461 
##  9 District of Columbia Y          0.484  
## 10 Florida              N          0.222  
## # … with 42 more rows
…
